<svg width="400" height="401" viewBox="0 0 400 401" fill="none" xmlns="http://www.w3.org/2000/svg">
<path d="M167.548 394.3C167.548 394.3 189.951 398.384 211.987 396.839C230.188 395.562 255.733 388.292 255.733 388.292" stroke="white" stroke-width="6"/>
<path d="M40.2667 313.372C40.2667 313.372 53.1115 332.176 69.7023 346.761C83.4056 358.807 106.535 371.864 106.535 371.864" stroke="white" stroke-width="6"/>
<path d="M5.61833 166.714C5.61833 166.714 2.84676 187.988 3.36619 210.072C3.79522 228.313 11.1659 255.37 11.1659 255.37" stroke="white" stroke-width="6"/>
<path d="M232.283 6.59775C232.283 6.59775 209.874 2.54895 187.84 4.12938C169.642 5.43474 144.107 12.7449 144.107 12.7449" stroke="white" stroke-width="6"/>
<path d="M84.7719 40.5119C84.7719 40.5119 67.3723 54.4083 52.0254 70.2969C39.3494 83.4201 27.2058 105.745 27.2058 105.745" stroke="white" stroke-width="6"/>
<path d="M316.251 359.481C316.251 359.481 333.463 345.328 347.358 329.582C359.431 315.901 374.491 293.483 374.491 293.483" stroke="white" stroke-width="6"/>
<path d="M359.693 87.3228C359.693 87.3228 346.819 68.5396 330.205 53.981C316.482 41.9562 293.333 28.936 293.333 28.936" stroke="white" stroke-width="6"/>
<path d="M394.574 233.926C394.574 233.926 397.312 212.647 396.758 190.564C396.3 172.324 388.886 145.278 388.886 145.278" stroke="white" stroke-width="6"/>
<rect x="282.026" y="374.646" width="7" height="6" transform="rotate(-21.9611 282.026 374.646)" fill="white"/>
<rect x="135.572" y="382.959" width="7" height="6" transform="rotate(14.0863 135.572 382.959)" fill="white"/>
<rect x="24.7727" y="279.275" width="7" height="6" transform="rotate(64.2001 24.7727 279.275)" fill="white"/>
<rect x="17.8052" y="132.109" width="7" height="6" transform="rotate(108.761 17.8052 132.109)" fill="white"/>
<rect width="7.30721" height="6.12437" transform="matrix(-0.251596 0.967832 0.975428 0.220318 384.511 260.255)" fill="white"/>
<rect width="7.14039" height="6.26727" transform="matrix(0.366197 0.930537 0.918641 -0.395094 374.482 112.283)" fill="white"/>
<rect width="7.13011" height="6.27586" transform="matrix(0.958023 0.286692 0.314259 -0.949337 261.198 16.0635)" fill="white"/>
<rect width="7.32879" height="6.1054" transform="matrix(0.884388 -0.466752 -0.442721 -0.896659 113.352 27.9209)" fill="white"/>
</svg>
