<svg width="53" height="48" viewBox="0 0 53 48" fill="none" xmlns="http://www.w3.org/2000/svg">
<path d="M26.5 0L32.6741 17.9656H52.6541L36.49 29.0689L42.6641 47.0344L26.5 35.9311L10.3359 47.0344L16.51 29.0689L0.345945 17.9656H20.3259L26.5 0Z" fill="white"/>
</svg>
